<?xml version="1.0" encoding="UTF-8"?>
<glyph name="Emacron" format="2">
	<advance width="633"/>
	<unicode hex="0112"/>
	<outline>
		<component base="E"/>
		<component base="macroncomb" xOffset="188" yOffset="230"/>
	</outline>
	<lib>
		<dict>
			<key>public.markColor</key>
			<string>0.04,0.57,0.04,1</string>
		</dict>
	</lib>
</glyph>
