<?xml version="1.0" encoding="UTF-8"?>
<glyph name="eight.osf" format="2">
	<advance width="470"/>
	<outline>
		<contour>
			<point x="155" y="-14" type="curve" smooth="yes"/>
			<point x="274" y="-14"/>
			<point x="401" y="120"/>
			<point x="401" y="211" type="curve" smooth="yes"/>
			<point x="401" y="308"/>
			<point x="256" y="473"/>
			<point x="256" y="569" type="curve" smooth="yes"/>
			<point x="256" y="631"/>
			<point x="316" y="689"/>
			<point x="368" y="710" type="curve"/>
			<point x="405" y="696"/>
			<point x="437" y="669"/>
			<point x="437" y="632" type="curve" smooth="yes"/>
			<point x="437" y="566"/>
			<point x="353" y="474"/>
			<point x="283" y="403" type="curve"/>
			<point x="294" y="378" type="line"/>
			<point x="373" y="440"/>
			<point x="526" y="563"/>
			<point x="526" y="647" type="curve" smooth="yes"/>
			<point x="526" y="695"/>
			<point x="476" y="742"/>
			<point x="403" y="742" type="curve" smooth="yes"/>
			<point x="289" y="742"/>
			<point x="176" y="629"/>
			<point x="176" y="542" type="curve" smooth="yes"/>
			<point x="176" y="444"/>
			<point x="322" y="288"/>
			<point x="322" y="186" type="curve" smooth="yes"/>
			<point x="322" y="125"/>
			<point x="256" y="44"/>
			<point x="185" y="24" type="curve"/>
			<point x="140" y="43"/>
			<point x="110" y="84"/>
			<point x="110" y="127" type="curve" smooth="yes"/>
			<point x="110" y="193"/>
			<point x="176" y="277"/>
			<point x="257" y="357" type="curve"/>
			<point x="246" y="383" type="line"/>
			<point x="152" y="315"/>
			<point x="19" y="207"/>
			<point x="19" y="113" type="curve" smooth="yes"/>
			<point x="19" y="54"/>
			<point x="71" y="-14"/>
		</contour>
	</outline>
	<lib>
		<dict>
			<key>public.markColor</key>
			<string>0.04,0.57,0.04,1</string>
		</dict>
	</lib>
</glyph>
