<?xml version="1.0" encoding="UTF-8"?>
<glyph name="iacute" format="2">
	<advance width="276"/>
	<unicode hex="00ED"/>
	<outline>
		<component base="idotless"/>
		<component base="acutecomb" xOffset="132"/>
	</outline>
	<lib>
		<dict>
			<key>public.markColor</key>
			<string>0.04,0.57,0.04,1</string>
		</dict>
	</lib>
</glyph>
