<?xml version="1.0" encoding="UTF-8"?>
<glyph name="Oacute" format="2">
	<advance width="677"/>
	<unicode hex="00D3"/>
	<outline>
		<component base="O"/>
		<component base="acutecomb.case" xOffset="288" yOffset="150"/>
	</outline>
	<lib>
		<dict>
			<key>public.markColor</key>
			<string>0.04,0.57,0.04,1</string>
		</dict>
	</lib>
</glyph>
