<?xml version="1.0" encoding="UTF-8"?>
<glyph name="registered" format="2">
	<advance width="630"/>
	<unicode hex="00AE"/>
	<outline>
		<contour>
			<point x="365" y="143" type="curve" smooth="yes"/>
			<point x="525" y="143"/>
			<point x="650" y="270"/>
			<point x="650" y="429" type="curve" smooth="yes"/>
			<point x="650" y="588"/>
			<point x="525" y="714"/>
			<point x="365" y="714" type="curve" smooth="yes"/>
			<point x="205" y="714"/>
			<point x="80" y="588"/>
			<point x="80" y="429" type="curve" smooth="yes"/>
			<point x="80" y="270"/>
			<point x="205" y="143"/>
		</contour>
		<contour>
			<point x="365" y="191" type="curve" smooth="yes"/>
			<point x="233" y="191"/>
			<point x="128" y="297"/>
			<point x="128" y="429" type="curve" smooth="yes"/>
			<point x="128" y="560"/>
			<point x="233" y="666"/>
			<point x="365" y="666" type="curve" smooth="yes"/>
			<point x="497" y="666"/>
			<point x="602" y="560"/>
			<point x="602" y="429" type="curve" smooth="yes"/>
			<point x="602" y="297"/>
			<point x="497" y="191"/>
		</contour>
		<contour>
			<point x="248" y="293" type="line"/>
			<point x="367" y="293" type="line"/>
			<point x="367" y="304" type="line"/>
			<point x="346" y="307"/>
			<point x="334" y="314"/>
			<point x="334" y="349" type="curve" smooth="yes"/>
			<point x="334" y="417" type="line"/>
			<point x="348" y="417" type="line" smooth="yes"/>
			<point x="358" y="417"/>
			<point x="364" y="411"/>
			<point x="370" y="402" type="curve" smooth="yes"/>
			<point x="442" y="293" type="line"/>
			<point x="523" y="293" type="line"/>
			<point x="523" y="303" type="line"/>
			<point x="516" y="306" type="line" smooth="yes"/>
			<point x="496" y="315"/>
			<point x="428" y="416"/>
			<point x="413" y="431" type="curve"/>
			<point x="442" y="441"/>
			<point x="475" y="468"/>
			<point x="475" y="499" type="curve" smooth="yes"/>
			<point x="475" y="546"/>
			<point x="429" y="573"/>
			<point x="341" y="573" type="curve" smooth="yes"/>
			<point x="248" y="573" type="line"/>
			<point x="248" y="562" type="line"/>
			<point x="267" y="558"/>
			<point x="271" y="550"/>
			<point x="271" y="516" type="curve" smooth="yes"/>
			<point x="271" y="349" type="line" smooth="yes"/>
			<point x="271" y="315"/>
			<point x="267" y="308"/>
			<point x="248" y="304" type="curve"/>
		</contour>
		<contour>
			<point x="334" y="439" type="line"/>
			<point x="334" y="552" type="line"/>
			<point x="340" y="552" type="line" smooth="yes"/>
			<point x="382" y="552"/>
			<point x="410" y="530"/>
			<point x="410" y="496" type="curve" smooth="yes"/>
			<point x="410" y="462"/>
			<point x="383" y="439"/>
			<point x="348" y="439" type="curve" smooth="yes"/>
		</contour>
	</outline>
	<lib>
		<dict>
			<key>public.markColor</key>
			<string>0.04,0.57,0.04,1</string>
		</dict>
	</lib>
</glyph>
