<?xml version="1.0" encoding="UTF-8"?>
<glyph name="Ugrave" format="2">
	<advance width="669"/>
	<unicode hex="00D9"/>
	<outline>
		<component base="U"/>
		<component base="gravecomb.case" xOffset="234" yOffset="150"/>
	</outline>
	<lib>
		<dict>
			<key>public.markColor</key>
			<string>0.04,0.57,0.04,1</string>
		</dict>
	</lib>
</glyph>
