<?xml version="1.0" encoding="UTF-8"?>
<glyph name="upArrow" format="2">
	<advance width="557"/>
	<unicode hex="2191"/>
	<outline>
		<component base="rightArrow" xScale="0.2588" xyScale="0.9659" yScale="0.2588" yxScale="-0.9659" xOffset="398" yOffset="-254"/>
	</outline>
	<lib>
		<dict>
			<key>public.markColor</key>
			<string>0.04,0.57,0.04,1</string>
		</dict>
	</lib>
</glyph>
