<?xml version="1.0" encoding="UTF-8"?>
<glyph name="Wdieresis" format="2">
	<advance width="930"/>
	<unicode hex="1E84"/>
	<outline>
		<component base="W"/>
		<component base="dieresiscomb.case" xOffset="380" yOffset="150"/>
	</outline>
	<lib>
		<dict>
			<key>public.markColor</key>
			<string>0.04,0.57,0.04,1</string>
		</dict>
	</lib>
</glyph>
