<?xml version="1.0" encoding="UTF-8"?>
<glyph name="Ydieresis" format="2">
	<advance width="629"/>
	<unicode hex="0178"/>
	<outline>
		<component base="Y"/>
		<component base="dieresiscomb.case" xOffset="231" yOffset="150"/>
	</outline>
	<lib>
		<dict>
			<key>public.markColor</key>
			<string>0.04,0.57,0.04,1</string>
		</dict>
	</lib>
</glyph>
