<?xml version="1.0" encoding="UTF-8"?>
<glyph name="zero.tf" format="2">
	<advance width="530"/>
	<outline>
		<component base="zero" xOffset="-20"/>
	</outline>
	<lib>
		<dict>
			<key>com.schriftgestaltung.Glyphs.ComponentInfo</key>
			<array>
				<dict>
					<key>alignment</key>
					<integer>-1</integer>
					<key>index</key>
					<integer>0</integer>
					<key>name</key>
					<string>zero</string>
				</dict>
			</array>
			<key>public.markColor</key>
			<string>0.04,0.57,0.04,1</string>
		</dict>
	</lib>
</glyph>
