<?xml version="1.0" encoding="UTF-8"?>
<glyph name="c" format="2">
	<advance width="379"/>
	<unicode hex="0063"/>
	<guideline x="478" y="509" angle="0"/>
	<anchor x="233" y="0" name="bottom"/>
	<note>
		c
	</note>
	<outline>
		<contour>
			<point x="143" y="-14" type="curve" smooth="yes"/>
			<point x="214" y="-14"/>
			<point x="289" y="51"/>
			<point x="336" y="142" type="curve"/>
			<point x="321" y="153" type="line"/>
			<point x="269" y="100"/>
			<point x="209" y="57"/>
			<point x="175" y="46" type="curve"/>
			<point x="151" y="71"/>
			<point x="147" y="110"/>
			<point x="147" y="155" type="curve" smooth="yes"/>
			<point x="147" y="251"/>
			<point x="191" y="379"/>
			<point x="255" y="437" type="curve"/>
			<point x="302" y="418"/>
			<point x="339" y="388"/>
			<point x="364" y="367" type="curve"/>
			<point x="427" y="481" type="line"/>
			<point x="399" y="498"/>
			<point x="348" y="509"/>
			<point x="315" y="509" type="curve" smooth="yes"/>
			<point x="211" y="509"/>
			<point x="1" y="252"/>
			<point x="1" y="117" type="curve" smooth="yes"/>
			<point x="1" y="49"/>
			<point x="60" y="-14"/>
		</contour>
	</outline>
	<lib>
		<dict>
			<key>com.schriftgestaltung.Glyphs.leftMetricsKey</key>
			<string>o</string>
			<key>public.markColor</key>
			<string>0.04,0.57,0.04,1</string>
		</dict>
	</lib>
</glyph>
