<?xml version="1.0" encoding="UTF-8"?>
<glyph name="exclamdown.case" format="2">
	<advance width="244"/>
	<outline>
		<component base="exclamdown" xOffset="41" yOffset="153"/>
	</outline>
	<lib>
		<dict>
			<key>com.schriftgestaltung.Glyphs.leftMetricsKey</key>
			<string>exclamdown</string>
			<key>com.schriftgestaltung.Glyphs.rightMetricsKey</key>
			<string>exclamdown</string>
			<key>public.markColor</key>
			<string>0.04,0.57,0.04,1</string>
		</dict>
	</lib>
</glyph>
