<?xml version="1.0" encoding="UTF-8"?>
<glyph name="f_f_l" format="2">
	<advance width="914"/>
	<outline>
		<contour>
			<point x="-134" y="-262" type="curve" smooth="yes"/>
			<point x="-66" y="-262"/>
			<point x="97" y="-107"/>
			<point x="123" y="-22" type="curve" smooth="yes"/>
			<point x="174" y="145"/>
			<point x="231" y="368"/>
			<point x="268" y="515" type="curve" smooth="yes"/>
			<point x="280" y="564"/>
			<point x="298" y="620"/>
			<point x="308" y="643" type="curve"/>
			<point x="349" y="637"/>
			<point x="427" y="617"/>
			<point x="505" y="564" type="curve"/>
			<point x="571" y="654" type="line"/>
			<point x="497" y="706"/>
			<point x="421" y="710"/>
			<point x="395" y="710" type="curve" smooth="yes"/>
			<point x="338" y="710"/>
			<point x="162" y="615"/>
			<point x="138" y="511" type="curve"/>
			<point x="108" y="358"/>
			<point x="51" y="155"/>
			<point x="5" y="-7" type="curve" smooth="yes"/>
			<point x="-19" y="-90"/>
			<point x="-40" y="-154"/>
			<point x="-59" y="-182" type="curve"/>
			<point x="-87" y="-180"/>
			<point x="-129" y="-154"/>
			<point x="-180" y="-117" type="curve"/>
			<point x="-245" y="-239" type="line"/>
			<point x="-194" y="-257"/>
			<point x="-159" y="-262"/>
		</contour>
		<contour>
			<point x="656" y="437" type="line"/>
			<point x="682" y="481" type="line"/>
			<point x="675" y="504" type="line"/>
			<point x="149" y="486" type="line"/>
			<point x="52" y="473" type="line"/>
			<point x="53" y="450" type="line"/>
			<point x="120" y="446" type="line"/>
		</contour>
		<contour>
			<point x="193" y="-200" type="curve" smooth="yes"/>
			<point x="261" y="-200"/>
			<point x="421" y="-55"/>
			<point x="447" y="30" type="curve" smooth="yes"/>
			<point x="498" y="197"/>
			<point x="550" y="402"/>
			<point x="587" y="549" type="curve" smooth="yes"/>
			<point x="599" y="598"/>
			<point x="618" y="653"/>
			<point x="628" y="676" type="curve"/>
			<point x="669" y="674"/>
			<point x="720" y="662"/>
			<point x="792" y="612" type="curve"/>
			<point x="848" y="706" type="line"/>
			<point x="789" y="741"/>
			<point x="740" y="744"/>
			<point x="714" y="744" type="curve" smooth="yes"/>
			<point x="657" y="744"/>
			<point x="481" y="649"/>
			<point x="457" y="545" type="curve"/>
			<point x="427" y="392"/>
			<point x="375" y="207"/>
			<point x="329" y="45" type="curve" smooth="yes"/>
			<point x="305" y="-38"/>
			<point x="281" y="-94"/>
			<point x="262" y="-122" type="curve"/>
			<point x="234" y="-120"/>
			<point x="155" y="-107"/>
			<point x="62" y="-44" type="curve"/>
			<point x="-3" y="-138" type="line"/>
			<point x="81" y="-188"/>
			<point x="168" y="-200"/>
		</contour>
		<contour>
			<point x="740" y="-14" type="curve"/>
			<point x="779" y="20"/>
			<point x="803" y="59"/>
			<point x="879" y="116" type="curve"/>
			<point x="872" y="131" type="line"/>
			<point x="820" y="109"/>
			<point x="783" y="85"/>
			<point x="762" y="66" type="curve"/>
			<point x="765" y="106"/>
			<point x="775" y="147"/>
			<point x="794" y="215" type="curve" smooth="yes"/>
			<point x="940" y="727" type="line"/>
			<point x="930" y="739" type="line"/>
			<point x="808" y="694" type="line"/>
			<point x="651" y="149" type="line" smooth="yes"/>
			<point x="634" y="91"/>
			<point x="631" y="49"/>
			<point x="634" y="36" type="curve" smooth="yes"/>
			<point x="638" y="18"/>
			<point x="702" y="-9"/>
		</contour>
	</outline>
	<lib>
		<dict>
			<key>com.schriftgestaltung.Glyphs.leftMetricsKey</key>
			<string>f</string>
			<key>com.schriftgestaltung.Glyphs.rightMetricsKey</key>
			<string>l</string>
			<key>public.markColor</key>
			<string>0.04,0.57,0.04,1</string>
		</dict>
	</lib>
</glyph>
