<?xml version="1.0" encoding="UTF-8"?>
<glyph name="fut" format="2">
	<advance width="454"/>
	<guideline x="502" y="509" angle="0"/>
	<outline>
		<contour>
			<point x="39" y="-14" type="line"/>
			<point x="141" y="15" type="line"/>
			<point x="231" y="326" type="line" smooth="yes"/>
			<point x="246" y="378"/>
			<point x="265" y="450"/>
			<point x="269" y="476" type="curve"/>
			<point x="174" y="509" type="line"/>
			<point x="138" y="475"/>
			<point x="97" y="438"/>
			<point x="34" y="384" type="curve"/>
			<point x="46" y="364" type="line"/>
			<point x="81" y="386"/>
			<point x="108" y="404"/>
			<point x="141" y="425" type="curve"/>
			<point x="132" y="396"/>
			<point x="112" y="329"/>
			<point x="94" y="278" type="curve" smooth="yes"/>
			<point x="3" y="13" type="line"/>
		</contour>
	</outline>
	<lib>
		<dict>
			<key>com.schriftgestaltung.Glyphs.Export</key>
			<false/>
		</dict>
	</lib>
</glyph>
