<?xml version="1.0" encoding="UTF-8"?>
<glyph name="G" format="2">
	<advance width="678"/>
	<unicode hex="0047"/>
	<anchor x="317" y="0" name="bottom"/>
	<outline>
		<contour>
			<point x="517" y="-14" type="line"/>
			<point x="532" y="-14" type="line"/>
			<point x="611" y="282" type="line"/>
			<point x="677" y="299" type="line"/>
			<point x="681" y="317" type="line"/>
			<point x="343" y="317" type="line"/>
			<point x="340" y="300" type="line"/>
			<point x="474" y="281" type="line"/>
			<point x="416" y="63" type="line"/>
			<point x="401" y="49"/>
			<point x="373" y="28"/>
			<point x="332" y="28" type="curve" smooth="yes"/>
			<point x="221" y="28"/>
			<point x="194" y="159"/>
			<point x="194" y="251" type="curve" smooth="yes"/>
			<point x="194" y="430"/>
			<point x="340" y="670"/>
			<point x="474" y="670" type="curve" smooth="yes"/>
			<point x="508" y="670"/>
			<point x="524" y="663"/>
			<point x="549" y="646" type="curve"/>
			<point x="605" y="477" type="line"/>
			<point x="622" y="479" type="line"/>
			<point x="662" y="676" type="line"/>
			<point x="596" y="706"/>
			<point x="558" y="713"/>
			<point x="498" y="713" type="curve" smooth="yes"/>
			<point x="287" y="713"/>
			<point x="41" y="436"/>
			<point x="41" y="229" type="curve" smooth="yes"/>
			<point x="41" y="100"/>
			<point x="159" y="-13"/>
			<point x="306" y="-13" type="curve" smooth="yes"/>
			<point x="355" y="-13"/>
			<point x="410" y="6"/>
			<point x="456" y="25" type="curve"/>
		</contour>
	</outline>
	<lib>
		<dict>
			<key>com.schriftgestaltung.Glyphs.leftMetricsKey</key>
			<string>O</string>
			<key>public.markColor</key>
			<string>0.04,0.57,0.04,1</string>
		</dict>
	</lib>
</glyph>
