<?xml version="1.0" encoding="UTF-8"?>
<glyph name="imacron" format="2">
	<advance width="319"/>
	<unicode hex="012B"/>
	<outline>
		<component base="idotless"/>
		<component base="macroncomb" xOffset="-71" yOffset="10"/>
	</outline>
	<lib>
		<dict>
			<key>public.markColor</key>
			<string>0.04,0.57,0.04,1</string>
		</dict>
	</lib>
</glyph>
