<?xml version="1.0" encoding="UTF-8"?>
<glyph name="parenright.case" format="2">
	<advance width="286"/>
	<outline>
		<component base="parenright" xOffset="16" yOffset="60"/>
	</outline>
	<lib>
		<dict>
			<key>com.schriftgestaltung.Glyphs.leftMetricsKey</key>
			<string>=|parenleft</string>
			<key>com.schriftgestaltung.Glyphs.rightMetricsKey</key>
			<string>=|parenleft</string>
			<key>public.markColor</key>
			<string>0.04,0.57,0.04,1</string>
		</dict>
	</lib>
</glyph>
