<?xml version="1.0" encoding="UTF-8"?>
<glyph name="cfem" format="2">
	<advance width="420"/>
	<unicode hex="F8280"/>
	<outline>
		<component base="dotbelowcomb" xOffset="129" yOffset="-9"/>
		<component base="c"/>
	</outline>
	<lib>
		<dict>
			<key>com.schriftgestaltung.Glyphs.leftMetricsKey</key>
			<string>c</string>
			<key>com.schriftgestaltung.Glyphs.rightMetricsKey</key>
			<string>c</string>
			<key>public.markColor</key>
			<string>0.04,0.57,0.04,1</string>
		</dict>
	</lib>
</glyph>
