<?xml version="1.0" encoding="UTF-8"?>
<glyph name="L_U" format="2">
	<advance width="1192"/>
	<unicode hex="F3250"/>
	<outline>
		<contour>
			<point x="30" y="0" type="line"/>
			<point x="608" y="0" type="line"/>
			<point x="611" y="14" type="line"/>
			<point x="587" y="33"/>
			<point x="550" y="76"/>
			<point x="543" y="107" type="curve"/>
			<point x="526" y="110" type="line"/>
			<point x="498" y="73"/>
			<point x="435" y="53"/>
			<point x="351" y="53" type="curve" smooth="yes"/>
			<point x="244" y="53"/>
			<point x="216" y="85"/>
			<point x="216" y="141" type="curve" smooth="yes"/>
			<point x="216" y="557" type="line" smooth="yes"/>
			<point x="216" y="643"/>
			<point x="258" y="664"/>
			<point x="291" y="673" type="curve"/>
			<point x="291" y="700" type="line"/>
			<point x="30" y="700" type="line"/>
			<point x="30" y="673" type="line"/>
			<point x="87" y="662"/>
			<point x="118" y="643"/>
			<point x="118" y="557" type="curve" smooth="yes"/>
			<point x="118" y="143" type="line" smooth="yes"/>
			<point x="118" y="57"/>
			<point x="87" y="38"/>
			<point x="30" y="27" type="curve"/>
		</contour>
		<component base="U" xOffset="468"/>
	</outline>
	<lib>
		<dict>
			<key>com.schriftgestaltung.Glyphs.leftMetricsKey</key>
			<string>L</string>
			<key>com.schriftgestaltung.Glyphs.rightMetricsKey</key>
			<string>U</string>
			<key>public.markColor</key>
			<string>0.04,0.57,0.04,1</string>
		</dict>
	</lib>
</glyph>
