<?xml version="1.0" encoding="UTF-8"?>
<glyph name="quotedblright" format="2">
	<advance width="372"/>
	<unicode hex="201D"/>
	<outline>
		<component base="quoteright" xOffset="-30"/>
		<component base="quoteright" xOffset="154"/>
	</outline>
	<lib>
		<dict>
			<key>public.markColor</key>
			<string>0.04,0.57,0.04,1</string>
		</dict>
	</lib>
</glyph>
