<?xml version="1.0" encoding="UTF-8"?>
<glyph name="s_l" format="2">
	<advance width="422"/>
	<unicode hex="F4760"/>
	<outline>
		<contour>
			<point x="98" y="208" type="line"/>
			<point x="186" y="208" type="line"/>
			<point x="186" y="645" type="line"/>
			<point x="98" y="645" type="line"/>
		</contour>
		<component base="empattement_haut" xOffset="42" yOffset="4"/>
		<component base="s-liga" xOffset="1"/>
	</outline>
	<lib>
		<dict>
			<key>public.markColor</key>
			<string>0.04,0.57,0.04,1</string>
		</dict>
	</lib>
</glyph>
