<?xml version="1.0" encoding="UTF-8"?>
<glyph name="u_l" format="2">
	<advance width="545"/>
	<unicode hex="F5150"/>
	<outline>
		<contour>
			<point x="365" y="102" type="line"/>
			<point x="453" y="102" type="line"/>
			<point x="453" y="678" type="line"/>
			<point x="365" y="678" type="line"/>
		</contour>
		<component base="epaule" xScale="-1" yScale="-1" xOffset="575" yOffset="470"/>
		<component base="empattement_haut" xOffset="32" yOffset="-256"/>
		<component base="empattement_decale" xScale="-1" yScale="-1" xOffset="556" yOffset="470"/>
		<component base="empattement_haut" xOffset="309" yOffset="4"/>
	</outline>
	<lib>
		<dict>
			<key>com.schriftgestaltung.Glyphs.leftMetricsKey</key>
			<string>u</string>
			<key>com.schriftgestaltung.Glyphs.rightMetricsKey</key>
			<string>d</string>
			<key>public.markColor</key>
			<string>0.04,0.57,0.04,1</string>
		</dict>
	</lib>
</glyph>
