<?xml version="1.0" encoding="UTF-8"?>
<glyph name="boutw" format="2">
	<advance width="330"/>
	<outline>
		<contour>
			<point x="236" y="-9" type="line"/>
			<point x="307" y="-9" type="line"/>
			<point x="457" y="383" type="line"/>
			<point x="409" y="402" type="line"/>
			<point x="288" y="77" type="line"/>
			<point x="339" y="101" type="line"/>
			<point x="237" y="371" type="line" smooth="yes"/>
			<point x="221" y="414"/>
			<point x="234" y="452"/>
			<point x="271" y="453" type="curve"/>
			<point x="271" y="480" type="line"/>
			<point x="-5" y="480" type="line"/>
			<point x="-5" y="453" type="line"/>
			<point x="28" y="449"/>
			<point x="42" y="435"/>
			<point x="68" y="376" type="curve" smooth="yes"/>
		</contour>
	</outline>
	<lib>
		<dict>
			<key>com.schriftgestaltung.Glyphs.Export</key>
			<false/>
		</dict>
	</lib>
</glyph>
