<?xml version="1.0" encoding="UTF-8"?>
<glyph name="currency" format="2">
	<advance width="463"/>
	<unicode hex="00A4"/>
	<outline>
		<component base="degree" xScale="1.1" yScale="1.1" xOffset="66" yOffset="-290"/>
		<contour>
			<point x="22" y="504" type="line"/>
			<point x="144" y="382" type="line"/>
			<point x="206" y="444" type="line"/>
			<point x="84" y="567" type="line"/>
		</contour>
		<contour>
			<point x="259" y="267" type="line"/>
			<point x="381" y="145" type="line"/>
			<point x="443" y="207" type="line"/>
			<point x="321" y="330" type="line"/>
		</contour>
		<contour>
			<point x="380" y="567" type="line"/>
			<point x="258" y="445" type="line"/>
			<point x="320" y="383" type="line"/>
			<point x="442" y="505" type="line"/>
		</contour>
		<contour>
			<point x="143" y="330" type="line"/>
			<point x="20" y="207" type="line"/>
			<point x="83" y="145" type="line"/>
			<point x="206" y="268" type="line"/>
		</contour>
	</outline>
	<lib>
		<dict>
			<key>public.markColor</key>
			<string>0.04,0.57,0.04,1</string>
		</dict>
	</lib>
</glyph>
