<?xml version="1.0" encoding="UTF-8"?>
<glyph name="Imacron" format="2">
	<advance width="353"/>
	<unicode hex="012A"/>
	<outline>
		<component base="I"/>
		<component base="macroncomb" xOffset="-10" yOffset="230"/>
	</outline>
	<lib>
		<dict>
			<key>public.markColor</key>
			<string>0.04,0.57,0.04,1</string>
		</dict>
	</lib>
</glyph>
