<?xml version="1.0" encoding="UTF-8"?>
<glyph name="idieresisfem" format="2">
	<advance width="290"/>
	<outline>
		<component base="idieresis"/>
		<component base="dotbelowcomb" xOffset="16"/>
	</outline>
	<lib>
		<dict>
			<key>com.schriftgestaltung.Glyphs.ComponentInfo</key>
			<array>
				<dict>
					<key>alignment</key>
					<integer>-1</integer>
					<key>index</key>
					<integer>0</integer>
					<key>name</key>
					<string>idieresis</string>
				</dict>
			</array>
			<key>com.schriftgestaltung.Glyphs.leftMetricsKey</key>
			<string>idieresis</string>
			<key>com.schriftgestaltung.Glyphs.rightMetricsKey</key>
			<string>idieresis</string>
			<key>public.markColor</key>
			<string>0.06,0.6,0.98,1</string>
		</dict>
	</lib>
</glyph>
