<?xml version="1.0" encoding="UTF-8"?>
<glyph name="L_U" format="2">
	<advance width="1250"/>
	<unicode hex="F3250"/>
	<outline>
		<contour>
			<point x="40" y="0" type="line"/>
			<point x="633" y="0" type="line"/>
			<point x="637" y="19" type="line"/>
			<point x="588" y="59"/>
			<point x="565" y="102"/>
			<point x="558" y="126" type="curve"/>
			<point x="536" y="129" type="line"/>
			<point x="508" y="90"/>
			<point x="446" y="53"/>
			<point x="338" y="53" type="curve" smooth="yes"/>
			<point x="273" y="53"/>
			<point x="256" y="85"/>
			<point x="256" y="131" type="curve" smooth="yes"/>
			<point x="256" y="557" type="line" smooth="yes"/>
			<point x="256" y="643"/>
			<point x="280" y="662"/>
			<point x="323" y="673" type="curve"/>
			<point x="323" y="700" type="line"/>
			<point x="40" y="700" type="line"/>
			<point x="40" y="673" type="line"/>
			<point x="87" y="662"/>
			<point x="98" y="643"/>
			<point x="98" y="557" type="curve" smooth="yes"/>
			<point x="98" y="143" type="line" smooth="yes"/>
			<point x="98" y="57"/>
			<point x="87" y="38"/>
			<point x="40" y="27" type="curve"/>
		</contour>
		<component base="U" xOffset="516"/>
	</outline>
	<lib>
		<dict>
			<key>com.schriftgestaltung.Glyphs.leftMetricsKey</key>
			<string>L</string>
			<key>com.schriftgestaltung.Glyphs.rightMetricsKey</key>
			<string>U</string>
			<key>public.markColor</key>
			<string>0.04,0.57,0.04,1</string>
		</dict>
	</lib>
</glyph>
