<?xml version="1.0" encoding="UTF-8"?>
<glyph name="panse" format="2">
	<advance width="580"/>
	<outline>
		<contour>
			<point x="292" y="-14" type="curve" smooth="yes"/>
			<point x="423" y="-14"/>
			<point x="555" y="97"/>
			<point x="555" y="266" type="curve" smooth="yes"/>
			<point x="555" y="407"/>
			<point x="463" y="494"/>
			<point x="373" y="494" type="curve" smooth="yes"/>
			<point x="316" y="494"/>
			<point x="258" y="463"/>
			<point x="196" y="401" type="curve"/>
			<point x="208" y="345" type="line"/>
			<point x="242" y="385"/>
			<point x="272" y="411"/>
			<point x="304" y="411" type="curve" smooth="yes"/>
			<point x="367" y="411"/>
			<point x="413" y="317"/>
			<point x="413" y="215" type="curve" smooth="yes"/>
			<point x="413" y="121"/>
			<point x="380" y="38"/>
			<point x="326" y="38" type="curve" smooth="yes"/>
			<point x="281" y="38"/>
			<point x="236" y="79"/>
			<point x="198" y="130" type="curve"/>
			<point x="147" y="20" type="line"/>
			<point x="181" y="1"/>
			<point x="244" y="-14"/>
		</contour>
	</outline>
	<lib>
		<dict>
			<key>com.schriftgestaltung.Glyphs.Export</key>
			<false/>
		</dict>
	</lib>
</glyph>
