<?xml version="1.0" encoding="UTF-8"?>
<glyph name="periodcentered" format="2">
	<advance width="219"/>
	<unicode hex="00B7"/>
	<outline>
		<component base="period" xOffset="-5" yOffset="187"/>
	</outline>
	<lib>
		<dict>
			<key>com.schriftgestaltung.Glyphs.leftMetricsKey</key>
			<string>=period-5</string>
			<key>com.schriftgestaltung.Glyphs.rightMetricsKey</key>
			<string>=period-5</string>
			<key>public.markColor</key>
			<string>0.04,0.57,0.04,1</string>
		</dict>
	</lib>
</glyph>
