<?xml version="1.0" encoding="UTF-8"?>
<glyph name="quotedbl" format="2">
	<advance width="368"/>
	<unicode hex="0022"/>
	<outline>
		<component base="quotesingle"/>
		<component base="quotesingle" xOffset="177"/>
	</outline>
	<lib>
		<dict>
			<key>public.markColor</key>
			<string>0.04,0.57,0.04,1</string>
		</dict>
	</lib>
</glyph>
