<?xml version="1.0" encoding="UTF-8"?>
<glyph name="r" format="2">
	<advance width="442"/>
	<unicode hex="0072"/>
	<anchor x="169" y="0" name="bottom"/>
	<note>
		r
	</note>
	<outline>
		<contour>
			<point x="221" y="297" type="line"/>
			<point x="252" y="346"/>
			<point x="288" y="359"/>
			<point x="320" y="359" type="curve" smooth="yes"/>
			<point x="358" y="359"/>
			<point x="382" y="335"/>
			<point x="402" y="315" type="curve"/>
			<point x="452" y="430" type="line"/>
			<point x="441" y="451"/>
			<point x="407" y="488"/>
			<point x="363" y="488" type="curve" smooth="yes"/>
			<point x="306" y="488"/>
			<point x="238" y="392"/>
			<point x="212" y="329" type="curve"/>
		</contour>
		<component base="empattement_bas_long" xOffset="35" yOffset="250"/>
		<contour>
			<point x="89" y="51" type="line"/>
			<point x="237" y="51" type="line"/>
			<point x="237" y="347" type="line"/>
			<point x="89" y="347" type="line"/>
		</contour>
		<component base="empattement_decale" xOffset="16" yOffset="10"/>
	</outline>
	<lib>
		<dict>
			<key>com.schriftgestaltung.Glyphs.leftMetricsKey</key>
			<string>n</string>
			<key>public.markColor</key>
			<string>0.04,0.57,0.04,1</string>
		</dict>
	</lib>
</glyph>
