<?xml version="1.0" encoding="UTF-8"?>
<glyph name="R_I" format="2">
	<advance width="1046"/>
	<unicode hex="F4470"/>
	<outline>
		<contour>
			<point x="721" y="-11" type="curve" smooth="yes"/>
			<point x="815" y="-11"/>
			<point x="922" y="0"/>
			<point x="1006" y="0" type="curve"/>
			<point x="1006" y="27" type="line"/>
			<point x="963" y="34"/>
			<point x="949" y="57"/>
			<point x="949" y="143" type="curve" smooth="yes"/>
			<point x="949" y="557" type="line" smooth="yes"/>
			<point x="949" y="643"/>
			<point x="963" y="666"/>
			<point x="1006" y="672" type="curve"/>
			<point x="1006" y="700" type="line"/>
			<point x="733" y="700" type="line"/>
			<point x="733" y="672" type="line"/>
			<point x="780" y="666"/>
			<point x="791" y="643"/>
			<point x="791" y="557" type="curve" smooth="yes"/>
			<point x="791" y="121" type="line" smooth="yes"/>
			<point x="791" y="59"/>
			<point x="772" y="34"/>
			<point x="733" y="34" type="curve" smooth="yes"/>
			<point x="628" y="34"/>
			<point x="550" y="278"/>
			<point x="453" y="345" type="curve"/>
			<point x="526" y="370"/>
			<point x="608" y="438"/>
			<point x="608" y="514" type="curve" smooth="yes"/>
			<point x="608" y="632"/>
			<point x="492" y="700"/>
			<point x="273" y="700" type="curve" smooth="yes"/>
			<point x="40" y="700" type="line"/>
			<point x="40" y="673" type="line"/>
			<point x="87" y="662"/>
			<point x="98" y="643"/>
			<point x="98" y="557" type="curve" smooth="yes"/>
			<point x="98" y="140" type="line" smooth="yes"/>
			<point x="98" y="55"/>
			<point x="87" y="38"/>
			<point x="40" y="27" type="curve"/>
			<point x="40" y="0" type="line"/>
			<point x="338" y="0" type="line"/>
			<point x="338" y="27" type="line"/>
			<point x="286" y="36"/>
			<point x="256" y="53"/>
			<point x="256" y="140" type="curve" smooth="yes"/>
			<point x="256" y="311" type="line"/>
			<point x="291" y="311" type="line" smooth="yes"/>
			<point x="315" y="311"/>
			<point x="331" y="295"/>
			<point x="345" y="273" type="curve" smooth="yes"/>
			<point x="446" y="119" type="line" smooth="yes"/>
			<point x="518" y="10"/>
			<point x="609" y="-11"/>
		</contour>
		<contour>
			<point x="256" y="364" type="line"/>
			<point x="256" y="647" type="line"/>
			<point x="269" y="647" type="line" smooth="yes"/>
			<point x="374" y="647"/>
			<point x="446" y="593"/>
			<point x="446" y="508" type="curve" smooth="yes"/>
			<point x="446" y="422"/>
			<point x="377" y="364"/>
			<point x="290" y="364" type="curve" smooth="yes"/>
		</contour>
	</outline>
	<lib>
		<dict>
			<key>com.schriftgestaltung.Glyphs.leftMetricsKey</key>
			<string>R</string>
			<key>com.schriftgestaltung.Glyphs.rightMetricsKey</key>
			<string>I</string>
			<key>public.markColor</key>
			<string>0.04,0.57,0.04,1</string>
		</dict>
	</lib>
</glyph>
