<?xml version="1.0" encoding="UTF-8"?>
<glyph name="S" format="2">
	<advance width="576"/>
	<unicode hex="0053"/>
	<anchor x="297" y="-9" name="bottom"/>
	<outline>
		<contour>
			<point x="275" y="-14" type="curve" smooth="yes"/>
			<point x="427" y="-14"/>
			<point x="536" y="72"/>
			<point x="536" y="216" type="curve" smooth="yes"/>
			<point x="536" y="312"/>
			<point x="488" y="364"/>
			<point x="397" y="405" type="curve" smooth="yes"/>
			<point x="264" y="465" type="line" smooth="yes"/>
			<point x="214" y="488"/>
			<point x="181" y="520"/>
			<point x="181" y="567" type="curve" smooth="yes"/>
			<point x="181" y="620"/>
			<point x="223" y="658"/>
			<point x="274" y="658" type="curve" smooth="yes"/>
			<point x="339" y="658"/>
			<point x="393" y="600"/>
			<point x="470" y="479" type="curve"/>
			<point x="494" y="485" type="line"/>
			<point x="488" y="670" type="line"/>
			<point x="444" y="701"/>
			<point x="376" y="713"/>
			<point x="317" y="713" type="curve" smooth="yes"/>
			<point x="160" y="713"/>
			<point x="64" y="627"/>
			<point x="64" y="503" type="curve" smooth="yes"/>
			<point x="64" y="426"/>
			<point x="101" y="357"/>
			<point x="207" y="308" type="curve" smooth="yes"/>
			<point x="335" y="249" type="line" smooth="yes"/>
			<point x="395" y="221"/>
			<point x="423" y="181"/>
			<point x="423" y="137" type="curve" smooth="yes"/>
			<point x="423" y="83"/>
			<point x="382" y="47"/>
			<point x="329" y="47" type="curve" smooth="yes"/>
			<point x="245" y="47"/>
			<point x="160" y="138"/>
			<point x="85" y="264" type="curve"/>
			<point x="60" y="261" type="line"/>
			<point x="63" y="61" type="line"/>
			<point x="106" y="20"/>
			<point x="180" y="-14"/>
		</contour>
	</outline>
	<lib>
		<dict>
			<key>public.markColor</key>
			<string>0.04,0.57,0.04,1</string>
		</dict>
	</lib>
</glyph>
