<?xml version="1.0" encoding="UTF-8"?>
<glyph name="section" format="2">
	<advance width="519"/>
	<unicode hex="00A7"/>
	<outline>
		<contour>
			<point x="279" y="86" type="line"/>
			<point x="365" y="96"/>
			<point x="469" y="181"/>
			<point x="469" y="276" type="curve" smooth="yes"/>
			<point x="469" y="353"/>
			<point x="427" y="394"/>
			<point x="372" y="433" type="curve" smooth="yes"/>
			<point x="255" y="515" type="line" smooth="yes"/>
			<point x="193" y="558"/>
			<point x="179" y="585"/>
			<point x="179" y="611" type="curve" smooth="yes"/>
			<point x="179" y="643"/>
			<point x="203" y="662"/>
			<point x="234" y="662" type="curve" smooth="yes"/>
			<point x="295" y="662"/>
			<point x="341" y="591"/>
			<point x="365" y="549" type="curve"/>
			<point x="423" y="657" type="line"/>
			<point x="381" y="694"/>
			<point x="323" y="714"/>
			<point x="264" y="714" type="curve" smooth="yes"/>
			<point x="161" y="714"/>
			<point x="74" y="648"/>
			<point x="74" y="554" type="curve" smooth="yes"/>
			<point x="74" y="495"/>
			<point x="111" y="447"/>
			<point x="174" y="403" type="curve" smooth="yes"/>
			<point x="293" y="320" type="line" smooth="yes"/>
			<point x="340" y="287"/>
			<point x="371" y="259"/>
			<point x="371" y="225" type="curve" smooth="yes"/>
			<point x="371" y="187"/>
			<point x="341" y="147"/>
			<point x="267" y="123" type="curve"/>
		</contour>
		<contour>
			<point x="254" y="-220" type="curve" smooth="yes"/>
			<point x="342" y="-220"/>
			<point x="450" y="-161"/>
			<point x="450" y="-49" type="curve" smooth="yes"/>
			<point x="450" y="3"/>
			<point x="420" y="52"/>
			<point x="356" y="99" type="curve" smooth="yes"/>
			<point x="223" y="197" type="line" smooth="yes"/>
			<point x="187" y="224"/>
			<point x="149" y="260"/>
			<point x="149" y="296" type="curve" smooth="yes"/>
			<point x="149" y="332"/>
			<point x="173" y="367"/>
			<point x="241" y="396" type="curve"/>
			<point x="233" y="430" type="line"/>
			<point x="133" y="416"/>
			<point x="50" y="328"/>
			<point x="50" y="234" type="curve" smooth="yes"/>
			<point x="50" y="171"/>
			<point x="94" y="121"/>
			<point x="140" y="87" type="curve" smooth="yes"/>
			<point x="274" y="-12" type="line" smooth="yes"/>
			<point x="317" y="-44"/>
			<point x="359" y="-65"/>
			<point x="359" y="-104" type="curve" smooth="yes"/>
			<point x="359" y="-137"/>
			<point x="336" y="-164"/>
			<point x="294" y="-164" type="curve" smooth="yes"/>
			<point x="235" y="-164"/>
			<point x="172" y="-99"/>
			<point x="143" y="-28" type="curve"/>
			<point x="58" y="-121" type="line"/>
			<point x="101" y="-192"/>
			<point x="187" y="-220"/>
		</contour>
	</outline>
	<lib>
		<dict>
			<key>public.markColor</key>
			<string>0.04,0.57,0.04,1</string>
		</dict>
	</lib>
</glyph>
