<?xml version="1.0" encoding="UTF-8"?>
<glyph name="six" format="2">
	<advance width="608"/>
	<unicode hex="0036"/>
	<outline>
		<contour>
			<point x="316" y="-14" type="curve" smooth="yes"/>
			<point x="468" y="-14"/>
			<point x="568" y="94"/>
			<point x="568" y="234" type="curve" smooth="yes"/>
			<point x="568" y="354"/>
			<point x="483" y="444"/>
			<point x="366" y="444" type="curve" smooth="yes"/>
			<point x="317" y="444"/>
			<point x="264" y="419"/>
			<point x="235" y="393" type="curve"/>
			<point x="248" y="366" type="line"/>
			<point x="263" y="371"/>
			<point x="288" y="377"/>
			<point x="311" y="377" type="curve" smooth="yes"/>
			<point x="391" y="377"/>
			<point x="431" y="277"/>
			<point x="431" y="193" type="curve" smooth="yes"/>
			<point x="431" y="108"/>
			<point x="403" y="37"/>
			<point x="335" y="37" type="curve" smooth="yes"/>
			<point x="252" y="37"/>
			<point x="190" y="144"/>
			<point x="190" y="287" type="curve" smooth="yes"/>
			<point x="190" y="459"/>
			<point x="259" y="570"/>
			<point x="469" y="681" type="curve"/>
			<point x="457" y="714" type="line"/>
			<point x="199" y="666"/>
			<point x="45" y="492"/>
			<point x="45" y="283" type="curve" smooth="yes"/>
			<point x="45" y="107"/>
			<point x="144" y="-14"/>
		</contour>
	</outline>
	<lib>
		<dict>
			<key>public.markColor</key>
			<string>0.04,0.57,0.04,1</string>
		</dict>
	</lib>
</glyph>
